{
  "SulOma-IntAff-MarTraTraCus-01": {
    "path": "♦ Sultans Of Oman <span>|</span> Internal Affairs <span>|</span> Maritime Transport, Trade & Custom </span> <div class='AR'>♦ سلاطين عمان <span>|</span> شؤون داخلية <span>|</span> نقل بحري، وتجارة، وجمارك </div>",
    "titre": {
      "en": "Sea cargo load permit. (1907)",
      "ar": " ترخيص نقل بحري.  ١٩٠٧"
    },
    "description": {
      "en": "A Sea cargo load permit for the ship \"Fatih Al Rahman\" belonging to Mohamed bin Mubarak. 22/9/1907",
      "ar": "ترخيص نقل بضائع على السفينة فتح الرحمان ملك محمد بن مبارك.  ١٤ / ٨ / ١٣٢٥هـ  -  ٢٢ / ٩ / ١٩٠٧م - "
    },
    "img": [
      "../MEDIA/Al%20Bu%20Said%20State/Sultans%20Of%20Oman/Al%20Bu%20Said%20State_Sultans%20Of%20Oman_Internal%20Affairs/Maritime%20Transport/2/Page%201.jpg",
      "../MEDIA/Al%20Bu%20Said%20State/Sultans%20Of%20Oman/Al%20Bu%20Said%20State_Sultans%20Of%20Oman_Internal%20Affairs/Maritime%20Transport/2/Page%202.jpg"
    ],
    "previous": "SulOma-IntAff-PolAffMil-09",
    "next": "SulOma-IntAff-MarTraTraCus-02"
  },
  "SulOma-IntAff-MarTraTraCus-02": {
    "path": "♦ Sultans Of Oman <span>|</span> Internal Affairs <span>|</span> Maritime Transport, Trade & Custom </span> <div class='AR'>♦ سلاطين عمان <span>|</span> شؤون داخلية <span>|</span> نقل بحري، وتجارة، وجمارك </div>",
    "titre": {
      "en": "Saif bin Hamad Al Amri sold his house to Sultan Faisal bin Turki. (1909)",
      "ar": " سيف بن حمد العمري باع بيته للسلطان فيصل بن تركي.  ١٩٠٩"
    },
    "description": {
      "en": "اقرار من سيف بن حمد  العامري، ببيع منزله الكائن في مطرح  للسلطان فيصل بن تركي، سلطان عمان. ٢٣ / ١١ / ١٣٢٧هـ  -   ٦ / ١٢ / ١٩٠٩م",
      "ar": "Avowal by Saif bin Hamad Al Amri stating he sold  his house in Mutrah to Sultan Faisal bin Turki, Sultan of Oman. 6/12/1909"
    },
    "img": [
      "../MEDIA/Al%20Bu%20Said%20State/Sultans%20Of%20Oman/Al%20Bu%20Said%20State_Sultans%20Of%20Oman_Internal%20Affairs/Trade/4.jpg"
    ],
    "previous": "SulOma-IntAff-MarTraTraCus-01",
    "next": "SulOma-IntAff-MarTraTraCus-03"
  },
  "SulOma-IntAff-MarTraTraCus-03": {
    "path": "♦ Sultans Of Oman <span>|</span> Internal Affairs <span>|</span> Maritime Transport, Trade & Custom </span> <div class='AR'>♦ سلاطين عمان <span>|</span> شؤون داخلية <span>|</span> نقل بحري، وتجارة، وجمارك </div>",
    "titre": {
      "en": "Foodstuff prices have gone up in Oman. (1925)",
      "ar": " أسعار المواد الغذائية إرتفعت في عمان.  ١٩٢٥"
    },
    "description": {
      "en": "A detailed record of foodstuff prices in Oman pointing out they have gone expensive. 1925",
      "ar": "وثيقة تفصل أسعار المواد الغذائية في عمان، وتشير إلى غلائها. ١٩٢٥م"
    },
    "img": [
      "../MEDIA/Al%20Bu%20Said%20State/Sultans%20Of%20Oman/Al%20Bu%20Said%20State_Sultans%20Of%20Oman_Internal%20Affairs/Trade/7.jpg"
    ],
    "previous": "SulOma-IntAff-MarTraTraCus-02",
    "next": "SulOma-IntAff-MarTraTraCus-04"
  },
  "SulOma-IntAff-MarTraTraCus-04": {
    "path": "♦ Sultans Of Oman <span>|</span> Internal Affairs <span>|</span> Maritime Transport, Trade & Custom </span> <div class='AR'>♦ سلاطين عمان <span>|</span> شؤون داخلية <span>|</span> نقل بحري، وتجارة، وجمارك </div>",
    "titre": {
      "en": "An official form provided through the customs office to record all transactions. (1939)",
      "ar": " أوراق رسمية متوفرة لدى مأمور الجمارك لتحرير الأمور الشرعية والبيع والرهن.  ١٩٣٩"
    },
    "description": {
      "en": "A letter from Ali Al Jamali, the Secretary of H.M. the Sultan, to the Wali (Governor) Sayyid Nasr bin Hamoud, informing him about H.M’s instructions’ to record the contracts between people, the mortgages, the power of attorney and similar documents in the official form provided through the customs office. 12/6/1939",
      "ar": "رسالة من علي الجمالي، سكرتير جلالة السلطان، إلى الوالي السيد نصر بن حمود، يعلمه فيها بأمر السلطان بتحرير المكاتبات بين الناس في الأمور الشرعية، والبيع، والرهن، والتوكيل، وغيرها، في الأوراق الرسمية المتوفرة لدى مأمور الجمرك.  ٢٣ / ٤ / ١٣٥٨هـ  -   ١٢ / ٦ / ١٩٣٩م"
    },
    "img": [
      "../MEDIA/Al%20Bu%20Said%20State/Sultans%20Of%20Oman/Al%20Bu%20Said%20State_Sultans%20Of%20Oman_Internal%20Affairs/Trade/8.jpg"
    ],
    "previous": "SulOma-IntAff-MarTraTraCus-03",
    "next": "SulOma-IntAff-MarTraTraCus-05"
  },
  "SulOma-IntAff-MarTraTraCus-05": {
    "path": "♦ Sultans Of Oman <span>|</span> Internal Affairs <span>|</span> Maritime Transport, Trade & Custom </span> <div class='AR'>♦ سلاطين عمان <span>|</span> شؤون داخلية <span>|</span> نقل بحري، وتجارة، وجمارك </div>",
    "titre": {
      "en": "Clove, rice and sugar prices. (1955)",
      "ar": ": أسعار القرنفل، والأرز، والسكر.  ١٩٥٥"
    },
    "description": {
      "en": "A letter from Mohamed bin Salim bin Saleem Al Jahwari, to Sheikh Mohamed bin Nacer Al Jahwari and his brother, informing them about the prices of clove, rice and sugar. 27/3/1955",
      "ar": "رسالة من محمد بن سالم بن سليم الجهوري، إلى الشيخ  محمد بن  ناصر الجهوري وأخيه، يعلمهما فيها بأسعار القرنفل والأرز والسكر. ٣ / ٨ / ١٣٧٤هـ  -   ٢٧ / ٣ / ١٩٥٥"
    },
    "img": [
      "../MEDIA/Al%20Bu%20Said%20State/Sultans%20Of%20Oman/Al%20Bu%20Said%20State_Sultans%20Of%20Oman_Internal%20Affairs/Trade/5.jpg"
    ],
    "previous": "SulOma-IntAff-MarTraTraCus-04",
    "next": "SulOma-IntAff-MarTraTraCus-02"
  },
  "SulOma-IntAff-MarTraTraCus-06": {
    "path": "♦ Sultans Of Oman <span>|</span> Internal Affairs <span>|</span> Maritime Transport, Trade & Custom </span> <div class='AR'>♦ سلاطين عمان <span>|</span> شؤون داخلية <span>|</span> نقل بحري، وتجارة، وجمارك </div>",
    "titre": {
      "en": "A customs duty exempted partial clearance permit. (1966)",
      "ar": " إذن إفراج جمركي جزئي مجانا.  ١٩٦٦"
    },
    "description": {
      "en": "A custom duty exempted partial clearance permit, issued by Ruwi Customs to Mutrah Customs. 30/3/1966",
      "ar": "إذن إفراج جزئي مجانا، يرخص الإفراج عن بضاعة، موجه من جمرك روي إلى جمرك مطرح. ٨ / ١٢ / ١٣٨٥هـ  - ٣٠ / ٣ / ١٩٦٦م"
    },
    "img": [
      "../MEDIA/Al%20Bu%20Said%20State/Sultans%20Of%20Oman/Al%20Bu%20Said%20State_Sultans%20Of%20Oman_Internal%20Affairs/Customs/1.jpg"
    ],
    "previous": "SulOma-IntAff-MarTraTraCus-05",
    "next": "SulOma-IntAff-MarTraTraCus-07"
  },
  "SulOma-IntAff-MarTraTraCus-07": {
    "path": "♦ Sultans Of Oman <span>|</span> Internal Affairs <span>|</span> Maritime Transport, Trade & Custom </span> <div class='AR'>♦ سلاطين عمان <span>|</span> شؤون داخلية <span>|</span> نقل بحري، وتجارة، وجمارك </div>",
    "titre": {
      "en": "A boat is heading to Taqa. (1970)",
      "ar": " توفر مركب متجه إلى طاقة.  ١٩٧٠"
    },
    "description": {
      "en": "A letter from Hamad bin Hamoud, to Sheikh Mohamed bin Birkat, informing him of the availability of a boat he can ride to Taqa, and directs him to coordinate with the Commander of the Army in Om Al Ghawafer to arrange for his trip . 22/3/1970 ",
      "ar": "رسالة من حمد بن حمود، إلى الشيخ محمد بن بركت، يعلمه فيها بتوفر مركب يمكنه السفر عليه إلى طاقة، ويوجهه للتنسيق مع قائد الجيش في أم الغوافر لترتيب سفره.  ١٣ / ١ / ١٣٩٠هـ  -  ٢٢ / ٣ / ١٩٧٠م "
    },
    "img": [
      "../MEDIA/Al%20Bu%20Said%20State/Sultans%20Of%20Oman/Al%20Bu%20Said%20State_Sultans%20Of%20Oman_Internal%20Affairs/Maritime%20Transport/1.jpg"
    ],
    "previous": "SulOma-IntAff-MarTraTraCus-06",
    "next": "SulOma-IntAff-MarTraTraCus-02"
  }
}