{
  "Man-01": {
    "path": "♦ Manuscripts <span class='AR'>المخطوطات</span>",
    "titre": {
      "en": " A letter of condolences for the death of Imam Mohamed bin Abdullah Al Khalili. (1954)",
      "ar": " تعزية في وفاة الإمام محمد بن عبد الله الخليلي.  ١٩٥٤م"
    },
    "description": {
      "en": "A letter of condolences for the death of Imam Mohamed bin Abdullah Al Khalili, from Fadhel bin Obeid, to Sheikh Khalfan bin Nacer Al Saadi. 18/5/1954",
      "ar": "رسالة تعزية في وفاة الإمام محمد بن عبد الله الخليلي، من فاضل بن عبيد، إلى الشيخ خلفان بن ناصر السعدي.  ١٥ / ٩ / ١٣٧٣هـ  -  ١٨ / ٥ / ١٩٥٤"
    },
    "img": [
      "../MEDIA/Manuscripts/1/Page%201.jpg",
      "../MEDIA/Manuscripts/1/Page%202.jpg",
      "../MEDIA/Manuscripts/1/Page%203.jpg",
      "../MEDIA/Manuscripts/1/Page%204.jpg",
      "../MEDIA/Manuscripts/1/Page%205.jpg",
      "../MEDIA/Manuscripts/1/Page%206.jpg",
      "../MEDIA/Manuscripts/1/Page%207.jpg",
      "../MEDIA/Manuscripts/1/Page%208.jpg",
      "../MEDIA/Manuscripts/1/Page%209.jpg",
      "../MEDIA/Manuscripts/1/Page%2010.jpg",
      "../MEDIA/Manuscripts/1/Page%2011.jpg",
      "../MEDIA/Manuscripts/1/Page%2012.jpg"
    ],
    "previous": "ImaOma-CouEle-03",
    "next": "Man-02"
  },
  "Man-02": {
    "path": "♦ Imamat Oman <span>/</span> Courtesy & Elegy <span class='AR'>تودد ورثاء</span>",
    "titre": {
      "en": " An elegy morning Imam Mohamed bin Abdullah Al Khalili.",
      "ar": " قصيدة رثاء الإمام محمد بن عبد الله الخليلي"
    },
    "description": {
      "en": "An elegy by Sheikh Poet Ibrahim bin Nouh Al Mizabi Al Maghribi, mourning Imam Mohamed bin Abdullah Al Khalili.",
      "ar": "قصيدة رثاء الإمام محمد بن عبد الله الخليلي، للشيخ الشاعر إبراهيم نوح المزابي المغربي"
    },
    "img": [
      "../MEDIA/Manuscripts/21/Page%201.jpg",
      "../MEDIA/Manuscripts/21/Page%202.jpg",
      "../MEDIA/Manuscripts/21/Page%203.jpg",
      "../MEDIA/Manuscripts/21/Page%204.jpg",
      "../MEDIA/Manuscripts/21/Page%205.jpg",
      "../MEDIA/Manuscripts/21/Page%206.jpg",
      "../MEDIA/Manuscripts/21/Page%207.jpg",
      "../MEDIA/Manuscripts/21/Page%208.jpg",
      "../MEDIA/Manuscripts/21/Page%209.jpg",
      "../MEDIA/Manuscripts/21/Page%2010.jpg",
      "../MEDIA/Manuscripts/21/Page%2011.jpg"
    ],
    "previous": "Man-01",
    "next": "Man-03"
  },
  "Man-03": {
    "path": "♦ Imamat Oman <span>/</span> Courtesy & Elegy <span class='AR'>تودد ورثاء</span>",
    "titre": {
      "en": " A courtesy letter from Imam Ghalib bin Ali Al Hinai, to Sheikh Hmoud bin Hamad Al Hmeed. (1955)",
      "ar": " رسالة ودية من الإمام غالب بن علي الهنائي إلى الشيخ حمود بن حمد آل حميد.  ١٩٥٥م"
    },
    "description": {
      "en": "A letter from Imam Ghalib bin Ali Al Hinai, to Sheikh Hmoud bin Hamad Al Hmeed, thanking him for the turbans he sent him. 1/11/1955",
      "ar": "رسالة من الإمام غالب بن علي الهنائي، إلى الشيخ حمود بن حمد آل حميد، يشكره فيها على العمائم التي أرسلها له.  ١٥ / ٣ / ١٣٧٥هـ  -  ١ / ١١ / ١٩٥٥م"
    },
    "img": [
      "../MEDIA/Manuscripts/14/Page%201.jpg",
      "../MEDIA/Manuscripts/14/Page%202.jpg",
      "../MEDIA/Manuscripts/14/Page%203.jpg",
      "../MEDIA/Manuscripts/14/Page%204.jpg",
      "../MEDIA/Manuscripts/14/Page%205.jpg",
      "../MEDIA/Manuscripts/14/Page%206.jpg",
      "../MEDIA/Manuscripts/14/Page%207.jpg",
      "../MEDIA/Manuscripts/14/Page%208.jpg",
      "../MEDIA/Manuscripts/14/Page%209.jpg",
      "../MEDIA/Manuscripts/14/Page%2010.jpg",
      "../MEDIA/Manuscripts/14/Page%2011.jpg",
      "../MEDIA/Manuscripts/14/Page%2012.jpg"
    ],
    "previous": "Man-02",
    "next": "Man-04"
  },
  "Man-04": {
    "path": "♦ Imamat Oman <span>/</span> Courtesy & Elegy <span class='AR'>تودد ورثاء</span>",
    "titre": {
      "en": " The Seekers' Guide manuscript. (1753)",
      "ar": "  مخطوط في الأحكام.  ١٧٥٣م"
    },
    "description": {
      "en": "A manuscript entitled \"Manhaj Al Talibeen\" (The Seekers` Guide, p.9), by the scholar Khamis bin Said Al Shaqsi, hand copied by Saleem bin Ahmed bin Ali Al Ruweihi in 16/1/1753.",
      "ar": "مخطوط في الأحكام بعنوان \" منهج الطالبين - ج ٩\"  للعالم الفقيه خميس بن سعيد الشقصي. نسخه سليم بن أحمد بن على الرويحي بتاريخ  ١١ / ٣ / ١١٦٦هـ  -  ١٦ / ١ / ١٧٥٣م "
    },
    "img": [
      "../MEDIA/Manuscripts/25/Page%201.jpg",
      "../MEDIA/Manuscripts/25/Page%202.jpg",
      "../MEDIA/Manuscripts/25/Page%203.jpg",
      "../MEDIA/Manuscripts/25/Page%204.jpg",
      "../MEDIA/Manuscripts/25/Page%205.jpg",
      "../MEDIA/Manuscripts/25/Page%206.jpg",
      "../MEDIA/Manuscripts/25/Page%207.jpg",
      "../MEDIA/Manuscripts/25/Page%208.jpg",
      "../MEDIA/Manuscripts/25/Page%209.jpg",
      "../MEDIA/Manuscripts/25/Page%2010.jpg",
      "../MEDIA/Manuscripts/25/Page%2011.jpg",
      "../MEDIA/Manuscripts/25/Page%2012.jpg",
      "../MEDIA/Manuscripts/25/Page%2013.jpg",
      "../MEDIA/Manuscripts/25/Page%2014.jpg"
    ],
    "previous": "Man-03",
    "next": "Man-05"
  },
  "Man-05": {
    "path": "♦ Imamat Oman <span>/</span> Courtesy & Elegy <span class='AR'>تودد ورثاء</span>",
    "titre": {
      "en": " A manuscript on Legitimate Marriage. (1753)",
      "ar": "  مخطوط في النكاح.  ١٧٥٣م"
    },
    "description": {
      "en": "A manuscript on Legitimate Marriage entitled \"Manhaj Al Talibeen\" (The Seekers` Guide, p.15), by the scholar Khamis bin Said Al Shaqsi, hand copied by Mohamed bin Amer bin Rashid Al Mazrou`i in 25/5/1753. ",
      "ar": "مخطوط في النكاح بعنوان\" منهج الطالبين – ج١٥\"  للعالم الفقيه خميس بن سعيد الشقصي. نسخه محمد بن عامر بن راشد المزروعي بتاريخ  ٢٢ / ٧ / ١١٦٦هـ  -  ٢٥ / ٥ / ١٧٥٣م "
    },
    "img": [
      "../MEDIA/Manuscripts/26/Page%201.jpg",
      "../MEDIA/Manuscripts/26/Page%202.jpg",
      "../MEDIA/Manuscripts/26/Page%203.jpg",
      "../MEDIA/Manuscripts/26/Page%204.jpg",
      "../MEDIA/Manuscripts/26/Page%205.jpg",
      "../MEDIA/Manuscripts/26/Page%206.jpg",
      "../MEDIA/Manuscripts/26/Page%207.jpg",
      "../MEDIA/Manuscripts/26/Page%208.jpg",
      "../MEDIA/Manuscripts/26/Page%209.jpg",
      "../MEDIA/Manuscripts/26/Page%2010.jpg",
      "../MEDIA/Manuscripts/26/Page%2011.jpg",
      "../MEDIA/Manuscripts/26/Page%2012.jpg",
      "../MEDIA/Manuscripts/26/Page%2013.jpg",
      "../MEDIA/Manuscripts/26/Page%2014.jpg",
      "../MEDIA/Manuscripts/26/Page%2015.jpg"
    ],
    "previous": "Man-04",
    "next": "Man-06"
  },
  "Man-06": {
    "path": "♦ Imamat Oman <span>/</span> Courtesy & Elegy <span class='AR'>تودد ورثاء</span>",
    "titre": {
      "en": " A manuscript on the Explanation of Islamic Legislation. (1768)",
      "ar": "  مخطوط في مدح العلم وطلبه.  ١٧٦٨م"
    },
    "description": {
      "en": "A manuscript entitled \"Bian Al Shar`\" (An Explanation of the Islamic legislation, p.1), on the praise of knowledge and the seeking of knowledge, the creation of Quran and an explanation of a verse from the holy Quran. By the scholar Mohamed Bin Ibrahim Al Kindi, hand copied by Amer bin Rashid bin Salim Al Qarwashi in 30/4/1768. ",
      "ar": "مخطوط في مدح العلم وطلبه، والناسخ والمنسوخ، وخلق القرآن، وتفسير آية من كتاب الله بعنوان \" بيان الشرع - ج١\"  للعالم الفقيه محمد بن إبراهيم الكندي. نسخه عامر بن راشد بن سالم القرواشي بتاريخ ١٢ / ١٢ / ١١٨١هـ  -  ٣٠ / ٤ / ١٧٦٨م"
    },
    "img": [
      "../MEDIA/Manuscripts/22/Page%201.jpg",
      "../MEDIA/Manuscripts/22/Page%202.jpg",
      "../MEDIA/Manuscripts/22/Page%203.jpg",
      "../MEDIA/Manuscripts/22/Page%204.jpg",
      "../MEDIA/Manuscripts/22/Page%205.jpg",
      "../MEDIA/Manuscripts/22/Page%206.jpg",
      "../MEDIA/Manuscripts/22/Page%207.jpg",
      "../MEDIA/Manuscripts/22/Page%208.jpg",
      "../MEDIA/Manuscripts/22/Page%209.jpg",
      "../MEDIA/Manuscripts/22/Page%2010.jpg",
      "../MEDIA/Manuscripts/22/Page%2011.jpg",
      "../MEDIA/Manuscripts/22/Page%2012.jpg",
      "../MEDIA/Manuscripts/22/Page%2013.jpg"
    ],
    "previous": "Man-05",
    "next": "Man-07"
  },
  "Man-07": {
    "path": "♦ Imamat Oman <span>/</span> Courtesy & Elegy <span class='AR'>تودد ورثاء</span>",
    "titre": {
      "en": " A manuscript in Jurisprudence. (1768)",
      "ar": "  مخطوط في فقه المقارن.  ١٧٦٨م"
    },
    "description": {
      "en": "A manuscript in Jurisprudence entitled \"Kitab Itifaq Al Aima Al Arba`a Wa Ikhtilafatihem\" (The Agreements Between the Four Imams and Points of Divergence), by Imam Saif bin Sultan bin Belarab Al Ya`rubi, hand copied by Khalaf bin Khamis bin Khalaf Al Samadi Al Nizwi in 14/10/1768.",
      "ar": "مخطوط في الفقه المقارن بعنوان \" كتاب إتفاق الأئمة الأربعة وإختلافاتهم\"  للإمام سيف بن سلطان بن بلعرب اليعربي. نسخه خلف بن خميس بن خلف السمدي النـزوي بتاريخ  ٢ / ٦ / ١١٨٢هـ  -  ١٤ /١٠/ ١٧٦٨م"
    },
    "img": [
      "../MEDIA/Manuscripts/13/Page%201.jpg",
      "../MEDIA/Manuscripts/13/Page%202.jpg",
      "../MEDIA/Manuscripts/13/Page%203.jpg",
      "../MEDIA/Manuscripts/13/Page%204.jpg",
      "../MEDIA/Manuscripts/13/Page%205.jpg",
      "../MEDIA/Manuscripts/13/Page%206.jpg",
      "../MEDIA/Manuscripts/13/Page%207.jpg",
      "../MEDIA/Manuscripts/13/Page%208.jpg",
      "../MEDIA/Manuscripts/13/Page%209.jpg",
      "../MEDIA/Manuscripts/13/Page%2010.jpg",
      "../MEDIA/Manuscripts/13/Page%2011.jpg",
      "../MEDIA/Manuscripts/13/Page%2012.jpg",
      "../MEDIA/Manuscripts/13/Page%2013.jpg"
    ],
    "previous": "Man-06",
    "next": "Man-08"
  },
  "Man-08": {
    "path": "♦ Imamat Oman <span>/</span> Courtesy & Elegy <span class='AR'>تودد ورثاء</span>",
    "titre": {
      "en": " A manuscript in Jurisprudence of Judiciary. (1773)",
      "ar": "  مخطوط في فقه القضاء والقاضي.  ١٧٧٣م"
    },
    "description": {
      "en": "A manuscript in Jurisprudence of Judiciary entitled \"Kitab Al Musanaf, p.13\" by the scholar Ahmed bin Abdullah bin Mosa Al Kindi, hand copied by Said bin Khalfan bin Said Attas in 1773. ",
      "ar": "مخطوط في فقه القضاء والقاضي بعنوان \" كتاب المصنف – ج١٣\"  للعالم الفقيه أحمد بن عبدالله بن موسى الكندي. نسخه سعيد بن خلفان بن سعيد عطاس في سنة  ١١٨٦هـ  -  ١٧٧٣م"
    },
    "img": [
      "../MEDIA/Manuscripts/19/Page%201.jpg",
      "../MEDIA/Manuscripts/19/Page%202.jpg",
      "../MEDIA/Manuscripts/19/Page%203.jpg",
      "../MEDIA/Manuscripts/19/Page%204.jpg",
      "../MEDIA/Manuscripts/19/Page%205.jpg",
      "../MEDIA/Manuscripts/19/Page%206.jpg",
      "../MEDIA/Manuscripts/19/Page%207.jpg",
      "../MEDIA/Manuscripts/19/Page%208.jpg",
      "../MEDIA/Manuscripts/19/Page%209.jpg",
      "../MEDIA/Manuscripts/19/Page%2010.jpg",
      "../MEDIA/Manuscripts/19/Page%2011.jpg",
      "../MEDIA/Manuscripts/19/Page%2012.jpg",
      "../MEDIA/Manuscripts/19/Page%2013.jpg",
      "../MEDIA/Manuscripts/19/Page%2014.jpg"
    ],
    "previous": "Man-07",
    "next": "Man-09"
  },
  "Man-09": {
    "path": "♦ Imamat Oman <span>/</span> Courtesy & Elegy <span class='AR'>تودد ورثاء</span>",
    "titre": {
      "en": " A manuscript on slaves and manumission. (1792)",
      "ar": "  مخطوط في المماليك وعتقهم.  ١٧٩٢م"
    },
    "description": {
      "en": "A manuscript on slaves and manumission entitled \"Kitab Al Musanaf, p.30\" by the scholar Ahmed bin Abdullah bin Mosa Al Kindi, hand copied by Said bin Khalfan bin Said Attas in 12/10/1792. ",
      "ar": "مخطوط في المماليك وعتقهم بعنوان \"كتاب المصنف - ج ٣٠\" للعالم الفقيه أحمد بن عبدالله بن موسى الكندي. نسخه سعيد بن خلفان بن سعيد عطاس بتاريخ  ٢٥ / ٢ / ١٢٠٧هـ  -  ١٢ / ١٠ / ١٧٩٢م"
    },
    "img": [
      "../MEDIA/Manuscripts/18/Page%201.jpg",
      "../MEDIA/Manuscripts/18/Page%202.jpg",
      "../MEDIA/Manuscripts/18/Page%203.jpg",
      "../MEDIA/Manuscripts/18/Page%204.jpg",
      "../MEDIA/Manuscripts/18/Page%205.jpg",
      "../MEDIA/Manuscripts/18/Page%206.jpg",
      "../MEDIA/Manuscripts/18/Page%207.jpg",
      "../MEDIA/Manuscripts/18/Page%208.jpg",
      "../MEDIA/Manuscripts/18/Page%209.jpg",
      "../MEDIA/Manuscripts/18/Page%2010.jpg",
      "../MEDIA/Manuscripts/18/Page%2011.jpg",
      "../MEDIA/Manuscripts/18/Page%2012.jpg",
      "../MEDIA/Manuscripts/18/Page%2013.jpg",
      "../MEDIA/Manuscripts/18/Page%2013.jpg"
    ],
    "previous": "Man-08",
    "next": "Man-10"
  },
  "Man-10": {
    "path": "♦ Imamat Oman <span>/</span> Courtesy & Elegy <span class='AR'>تودد ورثاء</span>",
    "titre": {
      "en": " A manuscript in Jurisprudence of Prayer. (1825)",
      "ar": " مخطوط في فقه الصلاة.  ١٨٢٥م"
    },
    "description": {
      "en": "A manuscript in Jurisprudence of Prayer entitled \"Sharh Al Qaseeda Al Raieya\" (an analysis of a peom by Shiekh Abi Nasr Fatih bin Nouh Al Maghribi Al Nafoosi) by Sheikh Abdullah bin Omar bin Ziyad Al Shaqsi, hand copied by Mohamed Bin Matar bin Mohamed in 29/4/1825.",
      "ar": "مخطوط في فقه الصلاة بعنوان\" شرح القصيدة الرائية\" للناظم الشيخ أبي نصر فتح بن نوح المغربي النفوسي. الشارح الشيخ عبدالله بن عمر بن زياد الشقصي. نسخه محمد بن مطر بن محمد بتاريخ  ١١ / ٩ / ١٢٤٠هـ  -  ٢٩ / ٤ / ١٨٢٥م"
    },
    "img": [
      "../MEDIA/Manuscripts/10/Page%201.jpg",
      "../MEDIA/Manuscripts/10/Page%202.jpg",
      "../MEDIA/Manuscripts/10/Page%203.jpg",
      "../MEDIA/Manuscripts/10/Page%204.jpg",
      "../MEDIA/Manuscripts/10/Page%205.jpg",
      "../MEDIA/Manuscripts/10/Page%206.jpg",
      "../MEDIA/Manuscripts/10/Page%207.jpg",
      "../MEDIA/Manuscripts/10/Page%208.jpg",
      "../MEDIA/Manuscripts/10/Page%209.jpg",
      "../MEDIA/Manuscripts/10/Page%2010.jpg",
      "../MEDIA/Manuscripts/10/Page%2011.jpg",
      "../MEDIA/Manuscripts/10/Page%2012.jpg",
      "../MEDIA/Manuscripts/10/Page%2013.jpg",
      "../MEDIA/Manuscripts/10/Page%2014.jpg"
    ],
    "previous": "Man-09",
    "next": "Man-11"
  },
  "Man-11": {
    "path": "♦ Imamat Oman <span>/</span> Courtesy & Elegy <span class='AR'>تودد ورثاء</span>",
    "titre": {
      "en": "A manuscript in Jurisprudence. (1844)",
      "ar": "A manuscript in Jurisprudence. (1844)"
    },
    "description": {
      "en": "A manuscript in Jurisprudence entitled \"Kitab Al Dalail Fee Al Lawazem Wal Wasail\" (The Guide in Means and Necessities), by Darwish bin Juma Al Mahrouqi. 27/8/1844 ",
      "ar": "مخطوط في الفقه بعنوان \" كتاب الدلائل في اللوازم والوسائل\"  لدرويش بن جمعه المحروقي. ١٢ / ٨ / ١٢٦٠هـ  -  ٢٧ / ٨ / ١٨٤٤م"
    },
    "img": [
      "../MEDIA/Manuscripts/19/Page%201.jpg",
      "../MEDIA/Manuscripts/19/Page%202.jpg",
      "../MEDIA/Manuscripts/19/Page%203.jpg",
      "../MEDIA/Manuscripts/19/Page%204.jpg",
      "../MEDIA/Manuscripts/19/Page%205.jpg",
      "../MEDIA/Manuscripts/19/Page%206.jpg",
      "../MEDIA/Manuscripts/19/Page%207.jpg",
      "../MEDIA/Manuscripts/19/Page%208.jpg",
      "../MEDIA/Manuscripts/19/Page%209.jpg",
      "../MEDIA/Manuscripts/19/Page%2010.jpg",
      "../MEDIA/Manuscripts/19/Page%2011.jpg",
      "../MEDIA/Manuscripts/19/Page%2012.jpg",
      "../MEDIA/Manuscripts/19/Page%2013.jpg",
      "../MEDIA/Manuscripts/19/Page%2014.jpg"
    ],
    "previous": "Man-10",
    "next": "Man-12"
  },
  "Man-12": {
    "path": "♦ Imamat Oman <span>/</span> Courtesy & Elegy <span class='AR'>تودد ورثاء</span>",
    "titre": {
      "en": "  A manuscript in Education. (1854)",
      "ar": "   مخطوط في أحكام التعليم.  ١٨٥٤م"
    },
    "description": {
      "en": "A manuscript in Education entitled \"Al Masajid wal Madaris\" (Mosques and Schools), by Abi Nabhan Ja`id bin Khamis Al Kharousi, hand copied by Salim bin Hamad bin Rashid Al Aamri in 24/9/1854. ",
      "ar": "مخطوط في أحكام التعليم بعنوان \" المساجد والمدارس\"  لأبي نبهان جاعد بن خميس الخروصي. نسخه سالم بن حمد بن راشد العامري بتاريخ ١٢٧١هـ  -  ٢٤ / ٩ / ١٨٥٤م "
    },
    "img": [
      "../MEDIA/Manuscripts/2/Page%201.jpg",
      "../MEDIA/Manuscripts/2/Page%202.jpg",
      "../MEDIA/Manuscripts/2/Page%203.jpg",
      "../MEDIA/Manuscripts/2/Page%204.jpg",
      "../MEDIA/Manuscripts/2/Page%205.jpg",
      "../MEDIA/Manuscripts/2/Page%206.jpg",
      "../MEDIA/Manuscripts/2/Page%207.jpg",
      "../MEDIA/Manuscripts/2/Page%208.jpg",
      "../MEDIA/Manuscripts/2/Page%209.jpg",
      "../MEDIA/Manuscripts/2/Page%2010.jpg",
      "../MEDIA/Manuscripts/2/Page%2011.jpg",
      "../MEDIA/Manuscripts/2/Page%2012.jpg",
      "../MEDIA/Manuscripts/2/Page%2013.jpg",
      "../MEDIA/Manuscripts/2/Page%2014.jpg",
      "../MEDIA/Manuscripts/2/Page%2015.jpg",
      "../MEDIA/Manuscripts/2/Page%2016.jpg",
      "../MEDIA/Manuscripts/2/Page%2017.jpg",
      "../MEDIA/Manuscripts/2/Page%2018.jpg",
      "../MEDIA/Manuscripts/2/Page%2019.jpg"
    ],
    "previous": "Man-11",
    "next": "Man-13"
  },
  "Man-13": {
    "path": "♦ Imamat Oman <span>/</span> Courtesy & Elegy <span class='AR'>تودد ورثاء</span>",
    "titre": {
      "en": " The Glossary of Shari'a manuscript, p.67. (1859)",
      "ar": " مخطوط في العدة والمواعدة والردة.  ١٨٥٩م"
    },
    "description": {
      "en": "A manuscript entitled \"Kitab Qamoos Al Shari`a\" (The Glossary of Shari`a, p.67), by the scholar Jameel bin Khamis Al Sa`di, hand copied by Salem bin Hamad bin Rashid Al Aamri in February 1859. ",
      "ar": "مخطوط في العدة والمواعدة والردة بعنوان \" كتاب قاموس الشريعة - ج٦٧\" للعالم الفقيه جميل بن خميس السعدي. نسخه سالم بن حمد بن راشد العامري في رجب ١٢٧٥هـ  - فبراير ١٨٥٩م  "
    },
    "img": [
      "../MEDIA/Manuscripts/23/Page%201.jpg",
      "../MEDIA/Manuscripts/23/Page%202.jpg",
      "../MEDIA/Manuscripts/23/Page%203.jpg",
      "../MEDIA/Manuscripts/23/Page%204.jpg",
      "../MEDIA/Manuscripts/23/Page%205.jpg",
      "../MEDIA/Manuscripts/23/Page%206.jpg",
      "../MEDIA/Manuscripts/23/Page%207.jpg",
      "../MEDIA/Manuscripts/23/Page%208.jpg",
      "../MEDIA/Manuscripts/23/Page%209.jpg",
      "../MEDIA/Manuscripts/23/Page%2010.jpg",
      "../MEDIA/Manuscripts/23/Page%2011.jpg",
      "../MEDIA/Manuscripts/23/Page%2012.jpg",
      "../MEDIA/Manuscripts/23/Page%2013.jpg",
      "../MEDIA/Manuscripts/23/Page%2014.jpg"
    ],
    "previous": "Man-12",
    "next": "Man-14"
  },
  "Man-14": {
    "path": "♦ Imamat Oman <span>/</span> Courtesy & Elegy <span class='AR'>تودد ورثاء</span>",
    "titre": {
      "en": " A manuscript in the Jurisprudence of Abadism. (1878)",
      "ar": "   مخطوط في فقه الإباضة.  ١٨٧٨م"
    },
    "description": {
      "en": "A manuscript in the Jurisprudence of Abadism entitled \"Jami` Ibn Baraka\" (The Book of Ibn Baraka), by Abi Mohamed Abdullah bin Baraka Al Bahlawi, hand copied by Mohamed bin Said Obaid Al Mutaiw`i in 6/5/1878. ",
      "ar": "مخطوط في فقه الإباضة بعنوان \" جامع ابن بركة \" لأبي محمد عبدالله بن محمد بن بركة البهلوي. نسخه محمد بن سعيد بن عبيد المطيوعي بتاريخ  ٤ / ٥ / ١٢٩٥هـ  -  ٦ / ٥ / ١٨٧٨م"
    },
    "img": [
      "../MEDIA/Manuscripts/4/Page%201.jpg",
      "../MEDIA/Manuscripts/4/Page%202.jpg",
      "../MEDIA/Manuscripts/4/Page%203.jpg",
      "../MEDIA/Manuscripts/4/Page%204.jpg",
      "../MEDIA/Manuscripts/4/Page%205.jpg",
      "../MEDIA/Manuscripts/4/Page%206.jpg",
      "../MEDIA/Manuscripts/4/Page%207.jpg",
      "../MEDIA/Manuscripts/4/Page%208.jpg",
      "../MEDIA/Manuscripts/4/Page%209.jpg",
      "../MEDIA/Manuscripts/4/Page%2010.jpg",
      "../MEDIA/Manuscripts/4/Page%2011.jpg",
      "../MEDIA/Manuscripts/4/Page%2012.jpg",
      "../MEDIA/Manuscripts/4/Page%2013.jpg",
      "../MEDIA/Manuscripts/4/Page%2014.jpg",
      "../MEDIA/Manuscripts/4/Page%2015.jpg",
      "../MEDIA/Manuscripts/4/Page%2016.jpg",
      "../MEDIA/Manuscripts/4/Page%2017.jpg",
      "../MEDIA/Manuscripts/4/Page%2018.jpg"
    ],
    "previous": "Man-13",
    "next": "Man-15"
  },
  "Man-15": {
    "path": "♦ Imamat Oman <span>/</span> Courtesy & Elegy <span class='AR'>تودد ورثاء</span>",
    "titre": {
      "en": " A manuscript in Jurisprudence. (1886)",
      "ar": "  مخطوط في الفقه.   ١٨٨٦م"
    },
    "description": {
      "en": "A manuscript in Jurisprudence entitled \"Jawaher Al Oqood Fee Tarikat Al Muaad Wal Mafqood\", by Saif bin Humaid bin Nasser Al Riyami. 11/9/1886",
      "ar": "مخطوط في الفقه بعنوان \"جواهر العقود في تركات المؤد والمفقود\"  لسيف بن حميد بن ناصر الريامي.  ٢١ / ١٢ / ١٣٠٣هـ  -  ١١ / ٩ / ١٨٨٦م"
    },
    "img": [
      "../MEDIA/Manuscripts/5/Page%201.jpg",
      "../MEDIA/Manuscripts/5/Page%202.jpg",
      "../MEDIA/Manuscripts/5/Page%203.jpg",
      "../MEDIA/Manuscripts/5/Page%204.jpg",
      "../MEDIA/Manuscripts/5/Page%205.jpg",
      "../MEDIA/Manuscripts/5/Page%206.jpg",
      "../MEDIA/Manuscripts/5/Page%207.jpg",
      "../MEDIA/Manuscripts/5/Page%208.jpg",
      "../MEDIA/Manuscripts/5/Page%209.jpg",
      "../MEDIA/Manuscripts/5/Page%2010.jpg",
      "../MEDIA/Manuscripts/5/Page%2011.jpg",
      "../MEDIA/Manuscripts/5/Page%2012.jpg",
      "../MEDIA/Manuscripts/5/Page%2013.jpg",
      "../MEDIA/Manuscripts/5/Page%2014.jpg",
      "../MEDIA/Manuscripts/5/Page%2015.jpg"
    ],
    "previous": "Man-14",
    "next": "Man-16"
  },
  "Man-16": {
    "path": "♦ Imamat Oman <span>/</span> Courtesy & Elegy <span class='AR'>تودد ورثاء</span>",
    "titre": {
      "en": " A manuscript in Theology. (1889)",
      "ar": "  مخطوط في أصول الدين.  ١٨٨٩م"
    },
    "description": {
      "en": "A manuscript in Theology entitled \"Mukhtasar Al Adl Wal Insaf\" (A Summary of Justice), by Abi Al Abbas Sheikh Ahmed bin Said Al Shamakhi, hand copied by Mohamed bin Said bin Obaid in 24/5/1889. ",
      "ar": "مخطوط في أصول الدين بعنوان \" مختصر العدل والانصاف\" لأبي العباس الشيخ أحمد بن سعيد الشماخي. نسخه محمد بن سعيد بن عبيد بتاريخ  ٢٤ / ٩ / ١٣٠٦هـ  -  ٢٤ / ٥ / ١٨٨٩م"
    },
    "img": [
      "../MEDIA/Manuscripts/9/Page%201.jpg",
      "../MEDIA/Manuscripts/9/Page%202.jpg",
      "../MEDIA/Manuscripts/9/Page%203.jpg",
      "../MEDIA/Manuscripts/9/Page%204.jpg",
      "../MEDIA/Manuscripts/9/Page%205.jpg",
      "../MEDIA/Manuscripts/9/Page%206.jpg",
      "../MEDIA/Manuscripts/9/Page%207.jpg",
      "../MEDIA/Manuscripts/9/Page%208.jpg",
      "../MEDIA/Manuscripts/9/Page%209.jpg",
      "../MEDIA/Manuscripts/9/Page%2010.jpg",
      "../MEDIA/Manuscripts/9/Page%2011.jpg",
      "../MEDIA/Manuscripts/9/Page%2012.jpg",
      "../MEDIA/Manuscripts/9/Page%2013.jpg",
      "../MEDIA/Manuscripts/9/Page%2014.jpg",
      "../MEDIA/Manuscripts/9/Page%2015.jpg",
      "../MEDIA/Manuscripts/9/Page%2016.jpg",
      "../MEDIA/Manuscripts/9/Page%2017.jpg",
      "../MEDIA/Manuscripts/9/Page%2018.jpg",
      "../MEDIA/Manuscripts/9/Page%2019.jpg",
      "../MEDIA/Manuscripts/9/Page%2020.jpg"
    ],
    "previous": "Man-15",
    "next": "Man-17"
  },
  "Man-17": {
    "path": "♦ Imamat Oman <span>/</span> Courtesy & Elegy <span class='AR'>تودد ورثاء</span>",
    "titre": {
      "en": " Analysis of Lamiyat Ibn Al Nadhar. (1889)",
      "ar": " مخطوط شرح لامية ابن النظر.  ١٨٨٩م"
    },
    "description": {
      "en": "A manuscript entitled \" Al Qit`a Al Rabi`a Min Kitab Al Is`af Fee Al Insaf\" analysis of Lamiyat Al Alama (scholar) Ibn Al Nadhar Ahmed bin Suleiman bin Al Nadhar Al Omani Al Ibadhi, by Mohamed bin Yusuf Atfeesh, hand copied by Mohamed bin Said bin Obaid Al Muteiw`i in 30/6/1889.",
      "ar": "مخطوط بعنوان \"القطعة الرابعة من كتاب الإسعاف في الإنصاف\" شرح لامية العلامة ابن النظر أحمد بن سليمان بن النظر العماني الإباضي، لمحمد بن يوسف أطفيش. نسخه محمد بن سعيد بن عبيد المطيوعي بتاريخ  ٢ / ١١ / ١٣٠٦هـ  -  ٣٠ / ٦ / ١٨٨٩م "
    },
    "img": [
      "../MEDIA/Manuscripts/17/Page%201.jpg",
      "../MEDIA/Manuscripts/17/Page%202.jpg",
      "../MEDIA/Manuscripts/17/Page%203.jpg",
      "../MEDIA/Manuscripts/17/Page%204.jpg",
      "../MEDIA/Manuscripts/17/Page%205.jpg",
      "../MEDIA/Manuscripts/17/Page%206.jpg",
      "../MEDIA/Manuscripts/17/Page%207.jpg",
      "../MEDIA/Manuscripts/17/Page%208.jpg",
      "../MEDIA/Manuscripts/17/Page%209.jpg",
      "../MEDIA/Manuscripts/17/Page%2010.jpg",
      "../MEDIA/Manuscripts/17/Page%2011.jpg",
      "../MEDIA/Manuscripts/17/Page%2012.jpg",
      "../MEDIA/Manuscripts/17/Page%2013.jpg",
      "../MEDIA/Manuscripts/17/Page%2014.jpg",
      "../MEDIA/Manuscripts/17/Page%2015.jpg",
      "../MEDIA/Manuscripts/17/Page%2016.jpg",
      "../MEDIA/Manuscripts/17/Page%2017.jpg"
    ],
    "previous": "Man-16",
    "next": "Man-18"
  },
  "Man-18": {
    "path": "♦ Imamat Oman <span>/</span> Courtesy & Elegy <span class='AR'>تودد ورثاء</span>",
    "titre": {
      "en": " a manuscript in Jurisprudence. (1899)",
      "ar": " مخطوط في أصول الفقه.  ١٨٩٩م"
    },
    "description": {
      "en": "A manuscript in Jurisprudence entitled \"Kitab Khizanat Al Jawaher\", by Hamad bin Obaid bin Musallam Al Slimi, hand copied by Issa bin Thani bin Khalfan Al Bakri in 27/1/1899.",
      "ar": "مخطوط في أصول الفقه بعنوان \" كتاب خزانة الجواهر\" لحمد بن عبيد بن مسلم السليمي. نسخه عيسى بن ثاني بن خلفان البكري بتاريخ  ١٥ / ٩ / ١٣٣٦هـ  -  ٢٧ / ١ / ١٨٩٩م "
    },
    "img": [
      "../MEDIA/Manuscripts/15/Page%201.jpg",
      "../MEDIA/Manuscripts/15/Page%202.jpg",
      "../MEDIA/Manuscripts/15/Page%203.jpg",
      "../MEDIA/Manuscripts/15/Page%204.jpg",
      "../MEDIA/Manuscripts/15/Page%205.jpg",
      "../MEDIA/Manuscripts/15/Page%206.jpg",
      "../MEDIA/Manuscripts/15/Page%207.jpg",
      "../MEDIA/Manuscripts/15/Page%208.jpg",
      "../MEDIA/Manuscripts/15/Page%209.jpg",
      "../MEDIA/Manuscripts/15/Page%2010.jpg",
      "../MEDIA/Manuscripts/15/Page%2011.jpg",
      "../MEDIA/Manuscripts/15/Page%2012.jpg",
      "../MEDIA/Manuscripts/15/Page%2013.jpg",
      "../MEDIA/Manuscripts/15/Page%2014.jpg",
      "../MEDIA/Manuscripts/15/Page%2015.jpg"
    ],
    "previous": "Man-17",
    "next": "Man-19"
  },
  "Man-19": {
    "path": "♦ Imamat Oman <span>/</span> Courtesy & Elegy <span class='AR'>تودد ورثاء</span>",
    "titre": {
      "en": " A manuscript in Islamic Doctrine. (1899)",
      "ar": " مخطوط في العقيدة.  ١٨٩٩م"
    },
    "description": {
      "en": "A manuscript in Doctrine entitled Kitab Izalat Al I`teradh An Muhiqi Aal Abadh\" by Seyyid Al Haj Mohamed bin Al Haj Yusuf Atfeesh, hand copied by Mohamed bin Said bin Obaid Al Muteiw`i in 10/2/1899.",
      "ar": "مخطوط في العقيدة بعنوان \"كتاب إزالة الإعتراض عن محقي آل إباض\" للسيد الحاج محمد بن الحاج يوسف أطفيش. نسخه محمد بن سعيد بن عبيد المطيوعي بتاريخ ٢٩ / ٩ / ١٣١٦هـ  -  ١٠ / ٢ / ١٨٩٩م"
    },
    "img": [
      "../MEDIA/Manuscripts/16/Page%201.jpg",
      "../MEDIA/Manuscripts/16/Page%202.jpg",
      "../MEDIA/Manuscripts/16/Page%203.jpg",
      "../MEDIA/Manuscripts/16/Page%204.jpg",
      "../MEDIA/Manuscripts/16/Page%205.jpg",
      "../MEDIA/Manuscripts/16/Page%206.jpg",
      "../MEDIA/Manuscripts/16/Page%207.jpg",
      "../MEDIA/Manuscripts/16/Page%208.jpg",
      "../MEDIA/Manuscripts/16/Page%209.jpg",
      "../MEDIA/Manuscripts/16/Page%2010.jpg",
      "../MEDIA/Manuscripts/16/Page%2011.jpg",
      "../MEDIA/Manuscripts/16/Page%2012.jpg",
      "../MEDIA/Manuscripts/16/Page%2013.jpg"
    ],
    "previous": "Man-18",
    "next": "Man-20"
  },
  "Man-20": {
    "path": "♦ Imamat Oman <span>/</span> Courtesy & Elegy <span class='AR'>تودد ورثاء</span>",
    "titre": {
      "en": " A manuscript in Medicine. (1910)",
      "ar": "  مخطوط في الطب.  ١٩١٠م"
    },
    "description": {
      "en": "A manuscript in Medicine entitled \"Fakihat Ibin Al Sabeel\" (Fruit of the Wayfarer, p.2), by Rashid bin Omair bin Thani, hand copied by Salim bin Said bin Sulaiman Al Quwait`i in 6/5/1910. ",
      "ar": "مخطوط في الطب بعنوان \" فاكهة ابن السبيل - ج٢\" لراشد بن عمير بن ثاني. نسخه سالم بن سعيد بن سليمان القويطعي بتاريخ  ٢٥ / ٤ / ١٣٢٨هـ  -  ٦ / ٥ / ١٩١٠م"
    },
    "img": [
      "../MEDIA/Manuscripts/8/Page%201.jpg",
      "../MEDIA/Manuscripts/8/Page%202.jpg",
      "../MEDIA/Manuscripts/8/Page%203.jpg",
      "../MEDIA/Manuscripts/8/Page%204.jpg",
      "../MEDIA/Manuscripts/8/Page%205.jpg",
      "../MEDIA/Manuscripts/8/Page%206.jpg",
      "../MEDIA/Manuscripts/8/Page%207.jpg",
      "../MEDIA/Manuscripts/8/Page%208.jpg",
      "../MEDIA/Manuscripts/8/Page%209.jpg",
      "../MEDIA/Manuscripts/8/Page%2010.jpg",
      "../MEDIA/Manuscripts/8/Page%2011.jpg",
      "../MEDIA/Manuscripts/8/Page%2012.jpg",
      "../MEDIA/Manuscripts/8/Page%2013.jpg",
      "../MEDIA/Manuscripts/8/Page%2014.jpg",
      "../MEDIA/Manuscripts/8/Page%2015.jpg",
      "../MEDIA/Manuscripts/8/Page%2016.jpg",
      "../MEDIA/Manuscripts/8/Page%2017.jpg"
    ],
    "previous": "Man-19",
    "next": "Man-21"
  },
  "Man-21": {
    "path": "♦ Imamat Oman <span>/</span> Courtesy & Elegy <span class='AR'>تودد ورثاء</span>",
    "titre": {
      "en": " The Glossary of Shari'a, p.90. (1910)",
      "ar": " مخطوط في الحدود وأحكامها.  ١٩١٠م"
    },
    "description": {
      "en": "A manuscript entitled \"Qamoos Al Shari`a\" (The Glossary of Shari`a, p.90), by the scholar Jameel bin Khamis Al Sa`di, hand copied by Hamad bin Mohamed bin Omar Al Riyami in 14/5/1910.",
      "ar": "مخطوط في الحدود وأحكامها بعنوان \" كتاب قاموس الشريعة - ج٩٠\" للعالم الفقيه جميل بن خميس السعدي. نسخه حمد بن محمد بن عمر الريامي بتاريخ  ٤ / ٥ / ١٣٢٨هـ - ١٤ / ٥ / ١٩١٠م "
    },
    "img": [
      "../MEDIA/Manuscripts/24/Page%201.jpg",
      "../MEDIA/Manuscripts/24/Page%202.jpg",
      "../MEDIA/Manuscripts/24/Page%203.jpg",
      "../MEDIA/Manuscripts/24/Page%204.jpg",
      "../MEDIA/Manuscripts/24/Page%205.jpg",
      "../MEDIA/Manuscripts/24/Page%206.jpg",
      "../MEDIA/Manuscripts/24/Page%207.jpg",
      "../MEDIA/Manuscripts/24/Page%208.jpg",
      "../MEDIA/Manuscripts/24/Page%209.jpg",
      "../MEDIA/Manuscripts/24/Page%2010.jpg",
      "../MEDIA/Manuscripts/24/Page%2011.jpg",
      "../MEDIA/Manuscripts/24/Page%2012.jpg",
      "../MEDIA/Manuscripts/24/Page%2013.jpg",
      "../MEDIA/Manuscripts/24/Page%2014.jpg"
    ],
    "previous": "Man-20",
    "next": "Man-22"
  },
  "Man-22": {
    "path": "♦ Imamat Oman <span>/</span> Courtesy & Elegy <span class='AR'>تودد ورثاء</span>",
    "titre": {
      "en": " A manuscript in Herbal Medicine. (1936)",
      "ar": "  مخطوط في طب الأعشاب.  ١٩٣٦م"
    },
    "description": {
      "en": "A manuscript in Herbal Medicine entitled \"Al Sir Al Ali Fee Khawas Al Nabat Al Sawahili\" (The Great Secret in the properties of the Swahili Plants), by the scholar Naser bin Abi Nabhan Ja`id bin Khamis Al Kharousi, hand copied by Abdullah bin Saif bin Khamis bin Said Al Riyami in 6/6/1936. ",
      "ar": "مخطوط في طب الأعشاب بعنوان \"السر العلي في خواص النبات السواحلي\" للعلامة ناصر بن أبي نبهان جاعد بن خميس الخروصي. نسخه عبدالله بن سيف بن خميس بن سعيد الريامي بتاريخ  ١٦ / ٣ / ١٣٥٥هـ  -  ٦ / ٦ / ١٩٣٦م "
    },
    "img": [
      "../MEDIA/Manuscripts/1/Page%201.jpg",
      "../MEDIA/Manuscripts/1/Page%202.jpg",
      "../MEDIA/Manuscripts/1/Page%203.jpg",
      "../MEDIA/Manuscripts/1/Page%204.jpg",
      "../MEDIA/Manuscripts/1/Page%205.jpg",
      "../MEDIA/Manuscripts/1/Page%206.jpg",
      "../MEDIA/Manuscripts/1/Page%207.jpg",
      "../MEDIA/Manuscripts/1/Page%208.jpg",
      "../MEDIA/Manuscripts/1/Page%209.jpg",
      "../MEDIA/Manuscripts/1/Page%2010.jpg",
      "../MEDIA/Manuscripts/1/Page%2011.jpg",
      "../MEDIA/Manuscripts/1/Page%2012.jpg"
    ],
    "previous": "Man-21",
    "next": "Man-23"
  },
  "Man-23": {
    "path": "♦ Imamat Oman <span>/</span> Courtesy & Elegy <span class='AR'>تودد ورثاء</span>",
    "titre": {
      "en": " A poetry Collection. (1954)",
      "ar": "  مخطوط ديوان شعري.  ١٩٥٤م"
    },
    "description": {
      "en": "A poetry collection entitled \"Deewan Abi Muslim Al Bahlani Kitab Al Nafs Al Rahmani\", by Abi Muslim Nasser bin Salim bin Adeem Al Bahlani, hand copied by Abdullah bin Ahmed bin Hamoud Al Hussaini in 1954. ",
      "ar": "ديوان شعري بعنوان \"ديوان أبي مسلم البهلاني كتاب النفس الرحماني\"  لأبي مسلم ناصر بن سالم بن عديم البهلاني. نسخه عبدالله بن أحمد بن حمود الحسيني بتاريخ ١٣٧٤هـ  - ١٩٥٤م"
    },
    "img": [
      "../MEDIA/Manuscripts/7/Page%201.jpg",
      "../MEDIA/Manuscripts/7/Page%202.jpg",
      "../MEDIA/Manuscripts/7/Page%203.jpg",
      "../MEDIA/Manuscripts/7/Page%204.jpg",
      "../MEDIA/Manuscripts/7/Page%205.jpg",
      "../MEDIA/Manuscripts/7/Page%206.jpg",
      "../MEDIA/Manuscripts/7/Page%207.jpg",
      "../MEDIA/Manuscripts/7/Page%208.jpg",
      "../MEDIA/Manuscripts/7/Page%209.jpg",
      "../MEDIA/Manuscripts/7/Page%2010.jpg",
      "../MEDIA/Manuscripts/7/Page%2011.jpg",
      "../MEDIA/Manuscripts/7/Page%2012.jpg",
      "../MEDIA/Manuscripts/7/Page%2013.jpg",
      "../MEDIA/Manuscripts/7/Page%2014.jpg"
    ],
    "previous": "Man-22",
    "next": "Man-24"
  },
  "Man-24": {
    "path": "♦ Imamat Oman <span>/</span> Courtesy & Elegy <span class='AR'>تودد ورثاء</span>",
    "titre": {
      "en": " A manuscript in Jurisprudence.",
      "ar": " مخطوط في الفقه"
    },
    "description": {
      "en": "A manuscript in Jurisprudence entitled \"Al Haq Al Mubeen Wa Haq Al Yaqeen\", by Sheikh Nasser bin Ja`id bin Khamis Al Kharousi.",
      "ar": "مخطوط في الفقه بعنوان \"الحق المبين وحق اليقين\" للشيخ ناصر بن جاعد بن خميس الخروصي"
    },
    "img": [
      "../MEDIA/Manuscripts/6/Page%201.jpg",
      "../MEDIA/Manuscripts/6/Page%202.jpg",
      "../MEDIA/Manuscripts/6/Page%203.jpg",
      "../MEDIA/Manuscripts/6/Page%204.jpg",
      "../MEDIA/Manuscripts/6/Page%205.jpg",
      "../MEDIA/Manuscripts/6/Page%206.jpg",
      "../MEDIA/Manuscripts/6/Page%207.jpg",
      "../MEDIA/Manuscripts/6/Page%208.jpg",
      "../MEDIA/Manuscripts/6/Page%209.jpg",
      "../MEDIA/Manuscripts/6/Page%2010.jpg",
      "../MEDIA/Manuscripts/6/Page%2011.jpg",
      "../MEDIA/Manuscripts/6/Page%2012.jpg",
      "../MEDIA/Manuscripts/6/Page%2013.jpg",
      "../MEDIA/Manuscripts/6/Page%2014.jpg",
      "../MEDIA/Manuscripts/6/Page%2015.jpg",
      "../MEDIA/Manuscripts/6/Page%2016.jpg",
      "../MEDIA/Manuscripts/6/Page%2017.jpg",
      "../MEDIA/Manuscripts/6/Page%2019.jpg",
      "../MEDIA/Manuscripts/6/Page%2020.jpg",
      "../MEDIA/Manuscripts/6/Page%2021.jpg",
      "../MEDIA/Manuscripts/6/Page%2022.jpg"
    ],
    "previous": "Man-23",
    "next": "Man-25"
  }
}