{
  "SulOma-ForAff-Med-01": {
    "path": "♦ Sultans Of Oman <span>|</span> Foreign Affairs <span>|</span> Medals </span> <div class='AR'>♦ سلاطين عمان <span>|</span> شؤون خار جية <span>|</span> أوسمة </div>",
    "titre": {
      "en": "Japanese Bright Sun Order conferred on Sayyid Thuwaini bin Shihab Al Said. (1992)",
      "ar": "وسام الشمس المشرقة الياباني، للسيد ثويني بن شهاب آل سعيد.  ١٩٩٢م"
    },
    "description": {
      "en": "A statement by the Government of Japan conferring The Bright Sun Order on Sayyid Thuwaini bin Shihab Al Said. 30/11/1992",
      "ar": "قرار من الحكومة اليابانية بمنح وسام الشمس المشرقة للسيد ثويني بن شهاب آل سعيد. ٤ / ٦ / ١٤١٣هـ  - ٣٠ / ١١ / ١٩٩٢م"
    },
    "img": [
      "../MEDIA/Al%20Bu%20Said%20State/Sultans%20Of%20Oman/Al%20Bu%20Said%20State_Sultans%20Of%20Oman_Foreign%20Affairs/Japan/Medals/1/Page%201.jpg",
      "../MEDIA/Al%20Bu%20Said%20State/Sultans%20Of%20Oman/Al%20Bu%20Said%20State_Sultans%20Of%20Oman_Foreign%20Affairs/Japan/Medals/1/Page%202.jpg",
      "../MEDIA/Al%20Bu%20Said%20State/Sultans%20Of%20Oman/Al%20Bu%20Said%20State_Sultans%20Of%20Oman_Foreign%20Affairs/Japan/Medals/1/Page%203.jpg"
    ],
    "previous": "SulOma-ForAff-CouCon-99",
    "next": "SulOma-ForAff-Med-02"
  }
}