{
  "SulOma-ForAff-PreRel-01": {
    "path": "♦ Sultans Of Oman <span>|</span> Foreign Affairs <span>|</span> Press Releases </span> <div class='AR'>♦ سلاطين عمان <span>|</span> شؤون خار جية <span>|</span> قصاصات صحفية </div>",
    "titre": {
      "en": "The Sultan of Oman receiving a French  delegation in Muscat. L'Illustraion French newspaper. 19th Century.",
      "ar": "سلطان عمان يستقبل بعثة فرنسية في مسقط. جريدة ليلوستراسيون الفرنسية. القرن ١٩"
    },
    "description": {
      "en": "The Sultan of Oman receiving a French delegation in Muscat. L'Illustration French newspaper, 19th Century",
      "ar": "سلطان عمان يستقبل بعثة فرنسية في مسقط. جريدة ليلوستراسيون الفرنسية. القرن ١٩م"
    },
    "img": [
      "../MEDIA/Al%20Bu%20Said%20State/Sultans%20Of%20Oman/Al%20Bu%20Said%20State_Sultans%20Of%20Oman_Foreign%20Affairs/France/Press%20Cuttings/1.jpg"
    ],
    "previous": "SulOma-ForAff-PubHealEdu-08",
    "next": "SulOma-ForAff-PreRel-02"
  },
  "SulOma-ForAff-PreRel-02": {
    "path": "♦ Sultans Of Oman <span>|</span> Foreign Affairs <span>|</span> Press Releases </span> <div class='AR'>♦ سلاطين عمان <span>|</span> شؤون خار جية <span>|</span> قصاصات صحفية </div>",
    "titre": {
      "en": "The bay of Muscat. L'Illustration French newspaper. 19th Century",
      "ar": " خليج مسقط في جريدة ليلوستراسيون الفرنسية. القرن ١٩"
    },
    "description": {
      "en": "The bay of Muscat in L'illustration French newspaper. 19th Century",
      "ar": "خليج مسقط في جريدة ليلوستراسيون الفرنسية. القرن ١٩م"
    },
    "img": [
      "../MEDIA/Al%20Bu%20Said%20State/Sultans%20Of%20Oman/Al%20Bu%20Said%20State_Sultans%20Of%20Oman_Foreign%20Affairs/France/Press%20Cuttings/2.jpg"
    ],
    "previous": "SulOma-ForAff-PreRel-01",
    "next": "SulOma-ForAff-PreRel-03"
  },
  "SulOma-ForAff-PreRel-03": {
    "path": "♦ Sultans Of Oman <span>|</span> Foreign Affairs <span>|</span> Press Releases </span> <div class='AR'>♦ سلاطين عمان <span>|</span> شؤون خار جية <span>|</span> قصاصات صحفية </div>",
    "titre": {
      "en": "Al Jalali Fort and the downloading beach in Muscat. L'Illustration French newspaper. 19th Century",
      "ar": "  قلعة الجلالي، وشاطئ التنزيل في مسقط. جريدة ليلوستراسيون الفرنسية. القرن ١٩"
    },
    "description": {
      "en": "Al Jalali Fort and the downloading beach in Muscat. L'Illustration French newspaper, 19th Century",
      "ar": "قلعة الجلالي، وشاطئ التنزيل في مسقط. جريدة ليلوستراسيون الفرنسية. القرن ١٩م"
    },
    "img": [
      "../MEDIA/Al%20Bu%20Said%20State/Sultans%20Of%20Oman/Al%20Bu%20Said%20State_Sultans%20Of%20Oman_Foreign%20Affairs/France/Press%20Cuttings/3.jpg"
    ],
    "previous": "SulOma-ForAff-PreRel-02",
    "next": "SulOma-ForAff-PreRel-04"
  },
  "SulOma-ForAff-PreRel-04": {
    "path": "♦ Sultans Of Oman <span>|</span> Foreign Affairs <span>|</span> Press Releases </span> <div class='AR'>♦ سلاطين عمان <span>|</span> شؤون خار جية <span>|</span> قصاصات صحفية </div>",
    "titre": {
      "en": "The British Consulate and the U.S. Consulate in Muscat. L'Illustration French newspaper. 19th Century",
      "ar": " رسمة للقنصليتين الأنجليزية والأمريكية في مسقط. جريدة ليلوستراسيون الفرنسية، القرن ١٩"
    },
    "description": {
      "en": "A drawing of Muscat showing the British Consulate (left) and the U.S.A. Consulate (right). L'Illustration French newspaper, 19th Century",
      "ar": "رسمة لمسقط، نرى فيها القنصليتين الأنجليزية (يسار) والأمريكية (يمين). جريدة ليلوستراسيون الفرنسية، القرن ١٩م"
    },
    "img": [
      "../MEDIA/Al%20Bu%20Said%20State/Sultans%20Of%20Oman/Al%20Bu%20Said%20State_Sultans%20Of%20Oman_Foreign%20Affairs/France/Press%20Cuttings/4.jpg"
    ],
    "previous": "SulOma-ForAff-PreRel-03",
    "next": "SulOma-ForAff-PreRel-05"
  },
  "SulOma-ForAff-PreRel-05": {
    "path": "♦ Sultans Of Oman <span>|</span> Foreign Affairs <span>|</span> Press Releases </span> <div class='AR'>♦ سلاطين عمان <span>|</span> شؤون خار جية <span>|</span> قصاصات صحفية </div>",
    "titre": {
      "en": "An Omani ship and a fishing boat in Oman. L'Illustration French newspaper. 19th  Century",
      "ar": " رسمة لسفينة عمانية، وقارب صيد في عمان. جريدة ليلوستراسيون الفرنسية، القرن ١٩م"
    },
    "description": {
      "en": "An Omani ship and a fishing boat in Oman. L'Illustration French newspaper, 19th Century ",
      "ar": "رسمة لسفينة عمانية، وقارب صيد في عمان. جريدة ليلوستراسيون الفرنسية، القرن ١٩م"
    },
    "img": [
      "../MEDIA/Al%20Bu%20Said%20State/Sultans%20Of%20Oman/Al%20Bu%20Said%20State_Sultans%20Of%20Oman_Foreign%20Affairs/France/Press%20Cuttings/5.jpg"
    ],
    "previous": "SulOma-ForAff-PreRel-04",
    "next": "SulOma-ForAff-PreRel-06"
  },
  "SulOma-ForAff-PreRel-06": {
    "path": "♦ Sultans Of Oman <span>|</span> Foreign Affairs <span>|</span> Press Releases </span> <div class='AR'>♦ سلاطين عمان <span>|</span> شؤون خار جية <span>|</span> قصاصات صحفية </div>",
    "titre": {
      "en": "Paris Match magazine features the recuperation of Nizwa from the rebels. (1957)",
      "ar": " تغطية خاصة لإسترجاع السلطان سعيد بن تيمور لمدينة نزوى من الثوار. مجلة باري ماتش الفرنسية. ٢٤ / ٨ / ١٩٥٧"
    },
    "description": {
      "en": "A special coverage featuring Sultan Said bin Taimur recuperation of Nizwa from the rebels. Paris Match French magazine. 24/8/1957",
      "ar": "تغطية خاصة لإسترجاع السلطان سعيد بن تيمور لمدينة نزوى من الثوار. مجلة باري ماتش الفرنسية. ٢٤ / ٨ / ١٩٥٧م"
    },
    "img": [
      "../MEDIA/Al%20Bu%20Said%20State/Sultans%20Of%20Oman/Al%20Bu%20Said%20State_Sultans%20Of%20Oman_Foreign%20Affairs/France/Press%20Cuttings/6/Page%201.jpg",
      "../MEDIA/Al%20Bu%20Said%20State/Sultans%20Of%20Oman/Al%20Bu%20Said%20State_Sultans%20Of%20Oman_Foreign%20Affairs/France/Press%20Cuttings/6/Page%202.jpg",
      "../MEDIA/Al%20Bu%20Said%20State/Sultans%20Of%20Oman/Al%20Bu%20Said%20State_Sultans%20Of%20Oman_Foreign%20Affairs/France/Press%20Cuttings/6/Page%203.jpg"
    ],
    "previous": "SulOma-ForAff-PreRel-05",
    "next": "SulOma-ForAff-PreRel-02"
  }
}